Tarea 1 - IN5162, Semestre Primavera 2025
…
# Calcular el costo total de cada canasta por país
costo_final_canastas <- escenario_prediccion %>%
  left_join(definicion_canastas, by = "Sub_categoria") %>%
  group_by(Pais, Canasta) %>% # En este caso debemos sumar el precio de cada elemento para crear el costo de la canasta.
  summarise(Costo_Total_USD = sum(Precio_Predicho_USD), .groups = 'drop') 

# Vemos los resultados y comparar
cat("Pronóstico del Costo Total por Canasta y País (en USD):\n")

## Pronóstico del Costo Total por Canasta y País (en USD):

print(costo_final_canastas)

## # A tibble: 21 × 3
##    Pais      Canasta           Costo_Total_USD
##    <fct>     <chr>                       <dbl>
##  1 Argentina Aseo del Hogar               21.3
##  2 Argentina Básica                       27.7
##  3 Argentina Carnes y Verduras            43.1
##  4 Chile     Aseo del Hogar               24.0
##  5 Chile     Básica                       28.6
##  6 Chile     Carnes y Verduras            46.2
##  7 Colombia  Aseo del Hogar               22.0
##  8 Colombia  Básica                       26.6
##  9 Colombia  Carnes y Verduras            44.1
## 10 España    Aseo del Hogar               22.5
## # ℹ 11 more rows
…
#Unimos la tabla de pronósticos con la de costos observados.
tabla_comparativa_ajustada <- costo_final_canastas %>%
  left_join(costo_observado_ajustado, by = c("Pais", "Canasta")) %>%
  rename(Costo_Pronosticado_USD = Costo_Total_USD)

#Printeamos
cat("Tabla Comparativa: Costo Pronosticado vs. Costo Observado (Promedio Feb-Mar 2022):\n")

## Tabla Comparativa: Costo Pronosticado vs. Costo Observado (Promedio Feb-Mar 2022):

print(tabla_comparativa_ajustada)

## # A tibble: 21 × 4
##    Pais      Canasta           Costo_Pronosticado_USD Costo_Observado_USD
##    <fct>     <chr>                              <dbl>               <dbl>
##  1 Argentina Aseo del Hogar                      21.3                14.3
##  2 Argentina Básica                              27.7                16.2
##  3 Argentina Carnes y Verduras                   43.1                33.7
##  4 Chile     Aseo del Hogar                      24.0                20.7
##  5 Chile     Básica                              28.6                19.8
##  6 Chile     Carnes y Verduras                   46.2                42.3
##  7 Colombia  Aseo del Hogar                      22.0                14.8
##  8 Colombia  Básica                              26.6                16.6
##  9 Colombia  Carnes y Verduras                   44.1                30.9
## 10 España    Aseo del Hogar                      22.5                16.6
## # ℹ 11 more rows
…
